tmp/sim.vcd
$version Generated by VerilatedVcd $end
$timescale 1ps $end
 $scope module TOP $end
  $var wire 1 q" clk $end
  $var wire 1 r" clk_en $end
  $var wire 1 s" sync_rst $end
  $scope module cyclonev_top_tb $end
   $var wire 1 q" clk $end
   $var wire 1 r" clk_en $end
   $var wire 1 s" sync_rst $end
   $var wire 10 t" switches [9:0] $end
   $var wire 4 v" push_buttons [3:0] $end
   $var wire 18 # leds [17:0] $end
   $scope module toplevel $end
    $var wire 1 q" clk $end
    $var wire 1 s" async_rst $end
    $var wire 10 t" switches [9:0] $end
    $var wire 4 v" push_buttons [3:0] $end
    $var wire 18 # leds [17:0] $end
    $var wire 1 $ rst_ff0 $end
    $var wire 1 % rst_ff1 $end
    $var wire 1 & boot_rst $end
    $var wire 1 ' sync_rst $end
    $var wire 1 r" clk_en $end
    $var wire 30 ( data_address [29:0] $end
    $var wire 32 ) core_data_out [31:0] $end
    $var wire 4 * core_data_mask [3:0] $end
    $var wire 1 + data_bus_lock $end
    $var wire 1 , data_bus_mode $end
    $var wire 32 - core_data_in [31:0] $end
    $var wire 8 . data_ram0[0] [7:0] $end
    $var wire 8 / data_ram0[1] [7:0] $end
    $var wire 8 0 data_ram0[2] [7:0] $end
    $var wire 8 1 data_ram0[3] [7:0] $end
    $var wire 8 2 data_ram0[4] [7:0] $end
    $var wire 8 3 data_ram0[5] [7:0] $end
    $var wire 8 4 data_ram0[6] [7:0] $end
    $var wire 8 5 data_ram0[7] [7:0] $end
    $var wire 8 6 data_ram0[8] [7:0] $end
    $var wire 8 7 data_ram0[9] [7:0] $end
    $var wire 8 8 data_ram0[10] [7:0] $end
    $var wire 8 9 data_ram0[11] [7:0] $end
    $var wire 8 : data_ram0[12] [7:0] $end
    $var wire 8 ; data_ram0[13] [7:0] $end
    $var wire 8 < data_ram0[14] [7:0] $end
    $var wire 8 = data_ram0[15] [7:0] $end
    $var wire 8 > data_ram0[16] [7:0] $end
    $var wire 8 ? data_ram0[17] [7:0] $end
    $var wire 8 @ data_ram0[18] [7:0] $end
    $var wire 8 A data_ram0[19] [7:0] $end
    $var wire 8 B data_ram0[20] [7:0] $end
    $var wire 8 C data_ram0[21] [7:0] $end
    $var wire 8 D data_ram0[22] [7:0] $end
    $var wire 8 E data_ram0[23] [7:0] $end
    $var wire 8 F data_ram0[24] [7:0] $end
    $var wire 8 G data_ram0[25] [7:0] $end
    $var wire 8 H data_ram0[26] [7:0] $end
    $var wire 8 I data_ram0[27] [7:0] $end
    $var wire 8 J data_ram0[28] [7:0] $end
    $var wire 8 K data_ram0[29] [7:0] $end
    $var wire 8 L data_ram0[30] [7:0] $end
    $var wire 8 M data_ram0[31] [7:0] $end
    $var wire 8 N data_ram1[0] [7:0] $end
    $var wire 8 O data_ram1[1] [7:0] $end
    $var wire 8 P data_ram1[2] [7:0] $end
    $var wire 8 Q data_ram1[3] [7:0] $end
    $var wire 8 R data_ram1[4] [7:0] $end
    $var wire 8 S data_ram1[5] [7:0] $end
    $var wire 8 T data_ram1[6] [7:0] $end
    $var wire 8 U data_ram1[7] [7:0] $end
    $var wire 8 V data_ram1[8] [7:0] $end
    $var wire 8 W data_ram1[9] [7:0] $end
    $var wire 8 X data_ram1[10] [7:0] $end
    $var wire 8 Y data_ram1[11] [7:0] $end
    $var wire 8 Z data_ram1[12] [7:0] $end
    $var wire 8 [ data_ram1[13] [7:0] $end
    $var wire 8 \ data_ram1[14] [7:0] $end
    $var wire 8 ] data_ram1[15] [7:0] $end
    $var wire 8 ^ data_ram1[16] [7:0] $end
    $var wire 8 _ data_ram1[17] [7:0] $end
    $var wire 8 ` data_ram1[18] [7:0] $end
    $var wire 8 a data_ram1[19] [7:0] $end
    $var wire 8 b data_ram1[20] [7:0] $end
    $var wire 8 c data_ram1[21] [7:0] $end
    $var wire 8 d data_ram1[22] [7:0] $end
    $var wire 8 e data_ram1[23] [7:0] $end
    $var wire 8 f data_ram1[24] [7:0] $end
    $var wire 8 g data_ram1[25] [7:0] $end
    $var wire 8 h data_ram1[26] [7:0] $end
    $var wire 8 i data_ram1[27] [7:0] $end
    $var wire 8 j data_ram1[28] [7:0] $end
    $var wire 8 k data_ram1[29] [7:0] $end
    $var wire 8 l data_ram1[30] [7:0] $end
    $var wire 8 m data_ram1[31] [7:0] $end
    $var wire 8 n data_ram2[0] [7:0] $end
    $var wire 8 o data_ram2[1] [7:0] $end
    $var wire 8 p data_ram2[2] [7:0] $end
    $var wire 8 q data_ram2[3] [7:0] $end
    $var wire 8 r data_ram2[4] [7:0] $end
    $var wire 8 s data_ram2[5] [7:0] $end
    $var wire 8 t data_ram2[6] [7:0] $end
    $var wire 8 u data_ram2[7] [7:0] $end
    $var wire 8 v data_ram2[8] [7:0] $end
    $var wire 8 w data_ram2[9] [7:0] $end
    $var wire 8 x data_ram2[10] [7:0] $end
    $var wire 8 y data_ram2[11] [7:0] $end
    $var wire 8 z data_ram2[12] [7:0] $end
    $var wire 8 { data_ram2[13] [7:0] $end
    $var wire 8 | data_ram2[14] [7:0] $end
    $var wire 8 } data_ram2[15] [7:0] $end
    $var wire 8 ~ data_ram2[16] [7:0] $end
    $var wire 8 !! data_ram2[17] [7:0] $end
    $var wire 8 "! data_ram2[18] [7:0] $end
    $var wire 8 #! data_ram2[19] [7:0] $end
    $var wire 8 $! data_ram2[20] [7:0] $end
    $var wire 8 %! data_ram2[21] [7:0] $end
    $var wire 8 &! data_ram2[22] [7:0] $end
    $var wire 8 '! data_ram2[23] [7:0] $end
    $var wire 8 (! data_ram2[24] [7:0] $end
    $var wire 8 )! data_ram2[25] [7:0] $end
    $var wire 8 *! data_ram2[26] [7:0] $end
    $var wire 8 +! data_ram2[27] [7:0] $end
    $var wire 8 ,! data_ram2[28] [7:0] $end
    $var wire 8 -! data_ram2[29] [7:0] $end
    $var wire 8 .! data_ram2[30] [7:0] $end
    $var wire 8 /! data_ram2[31] [7:0] $end
    $var wire 8 0! data_ram3[0] [7:0] $end
    $var wire 8 1! data_ram3[1] [7:0] $end
    $var wire 8 2! data_ram3[2] [7:0] $end
    $var wire 8 3! data_ram3[3] [7:0] $end
    $var wire 8 4! data_ram3[4] [7:0] $end
    $var wire 8 5! data_ram3[5] [7:0] $end
    $var wire 8 6! data_ram3[6] [7:0] $end
    $var wire 8 7! data_ram3[7] [7:0] $end
    $var wire 8 8! data_ram3[8] [7:0] $end
    $var wire 8 9! data_ram3[9] [7:0] $end
    $var wire 8 :! data_ram3[10] [7:0] $end
    $var wire 8 ;! data_ram3[11] [7:0] $end
    $var wire 8 <! data_ram3[12] [7:0] $end
    $var wire 8 =! data_ram3[13] [7:0] $end
    $var wire 8 >! data_ram3[14] [7:0] $end
    $var wire 8 ?! data_ram3[15] [7:0] $end
    $var wire 8 @! data_ram3[16] [7:0] $end
    $var wire 8 A! data_ram3[17] [7:0] $end
    $var wire 8 B! data_ram3[18] [7:0] $end
    $var wire 8 C! data_ram3[19] [7:0] $end
    $var wire 8 D! data_ram3[20] [7:0] $end
    $var wire 8 E! data_ram3[21] [7:0] $end
    $var wire 8 F! data_ram3[22] [7:0] $end
    $var wire 8 G! data_ram3[23] [7:0] $end
    $var wire 8 H! data_ram3[24] [7:0] $end
    $var wire 8 I! data_ram3[25] [7:0] $end
    $var wire 8 J! data_ram3[26] [7:0] $end
    $var wire 8 K! data_ram3[27] [7:0] $end
    $var wire 8 L! data_ram3[28] [7:0] $end
    $var wire 8 M! data_ram3[29] [7:0] $end
    $var wire 8 N! data_ram3[30] [7:0] $end
    $var wire 8 O! data_ram3[31] [7:0] $end
    $var wire 8 P! ram_buffer0 [7:0] $end
    $var wire 8 Q! ram_buffer1 [7:0] $end
    $var wire 8 R! ram_buffer2 [7:0] $end
    $var wire 8 S! ram_buffer3 [7:0] $end
    $var wire 32 T! ram_data_out [31:0] $end
    $var wire 18 # led_reg [17:0] $end
    $var wire 32 U! readjusted_data [31:0] $end
    $var wire 30 V! inst_address [29:0] $end
    $var wire 1 u" inst_req $end
    $var wire 32 W! inst_rom_buffer [31:0] $end
    $scope module core $end
     $var wire 1 q" clk $end
     $var wire 1 r" clk_en $end
     $var wire 1 ' sync_rst $end
     $var wire 32 W! inst_in [31:0] $end
     $var wire 32 - data_in [31:0] $end
     $var wire 30 V! inst_address [29:0] $end
     $var wire 1 u" inst_req $end
     $var wire 1 + bus_lock $end
     $var wire 1 , memory_mode $end
     $var wire 30 ( data_address [29:0] $end
     $var wire 4 * data_mask [3:0] $end
     $var wire 32 ) data_out [31:0] $end
     $var wire 30 X! pc_to_decode [29:0] $end
     $var wire 32 Y! adjusted_inst_in [31:0] $end
     $var wire 32 Z! dec_inst_out [31:0] $end
     $var wire 13 [! dec_ctr_word_out [12:0] $end
     $var wire 32 \! regfile_rs1 [31:0] $end
     $var wire 32 ]! regfile_rs2 [31:0] $end
     $var wire 30 ^! dec_pc_out [29:0] $end
     $var wire 30 _! pc_target_address [29:0] $end
     $var wire 1 `! pc_jmp $end
     $var wire 32 a! exe_inst_out [31:0] $end
     $var wire 5 b! exe_ctr_word_out [4:0] $end
     $var wire 32 c! exe_alu_out [31:0] $end
     $var wire 30 d! exe_inc_pc_out [29:0] $end
     $var wire 32 e! exe_regfile_rs2_out [31:0] $end
     $var wire 5 f! exe_regfile_rs1_address [4:0] $end
     $var wire 5 g! exe_regfile_rs2_address [4:0] $end
     $var wire 1 h! exe_uses_rs1 $end
     $var wire 1 i! exe_uses_rs2 $end
     $var wire 1 j! pipeline_stall $end
     $var wire 20 k! mem_inst_u_imm_out [19:0] $end
     $var wire 3 l! mem_inst_fn3_out [2:0] $end
     $var wire 5 m! mem_rd_addr_out [4:0] $end
     $var wire 3 n! mem_ctr_out [2:0] $end
     $var wire 32 o! mem_alu_out [31:0] $end
     $var wire 30 p! mem_inc_pc_out [29:0] $end
     $var wire 32 q! regfile_data_in [31:0] $end
     $var wire 5 m! regfile_destination [4:0] $end
     $var wire 1 r! regfile_we $end
     $scope module decode_stage $end
      $var wire 1 q" clk $end
      $var wire 1 u" clk_en $end
      $var wire 1 ' sync_rst $end
      $var wire 32 Y! inst_in [31:0] $end
      $var wire 30 X! pc_in [29:0] $end
      $var wire 1 `! invalidate $end
      $var wire 32 q! regfile_data_in [31:0] $end
      $var wire 5 m! regfile_destination [4:0] $end
      $var wire 1 r! regfile_we $end
      $var wire 32 Z! inst_out [31:0] $end
      $var wire 13 [! ctr_word_out [12:0] $end
      $var wire 32 \! regfile_rs1_out [31:0] $end
      $var wire 32 ]! regfile_rs2_out [31:0] $end
      $var wire 30 ^! pc_out [29:0] $end
      $var wire 32 Z! inst_out_buffer [31:0] $end
      $var wire 13 [! ctr_word_out_buffer [12:0] $end
      $var wire 30 ^! pc_buffer [29:0] $end
      $var wire 13 s! decoder_ctr_word [12:0] $end
      $scope module instruction_decoder $end
       $var wire 7 t! opcode [6:0] $end
       $var wire 13 s! ctr_word [12:0] $end
      $upscope $end
      $scope module regfile $end
       $var wire 1 q" clk $end
       $var wire 1 r! we $end
       $var wire 1 u" clk_en $end
       $var wire 32 q! data_in [31:0] $end
       $var wire 5 u! rs1_addr [4:0] $end
       $var wire 5 v! rs2_addr [4:0] $end
       $var wire 5 m! rd_addr [4:0] $end
       $var wire 32 \! rs1 [31:0] $end
       $var wire 32 ]! rs2 [31:0] $end
       $var wire 32 w! memory[0] [31:0] $end
       $var wire 32 x! memory[1] [31:0] $end
       $var wire 32 y! memory[2] [31:0] $end
       $var wire 32 z! memory[3] [31:0] $end
       $var wire 32 {! memory[4] [31:0] $end
       $var wire 32 |! memory[5] [31:0] $end
       $var wire 32 }! memory[6] [31:0] $end
       $var wire 32 ~! memory[7] [31:0] $end
       $var wire 32 !" memory[8] [31:0] $end
       $var wire 32 "" memory[9] [31:0] $end
       $var wire 32 #" memory[10] [31:0] $end
       $var wire 32 $" memory[11] [31:0] $end
       $var wire 32 %" memory[12] [31:0] $end
       $var wire 32 &" memory[13] [31:0] $end
       $var wire 32 '" memory[14] [31:0] $end
       $var wire 32 (" memory[15] [31:0] $end
       $var wire 32 )" memory[16] [31:0] $end
       $var wire 32 *" memory[17] [31:0] $end
       $var wire 32 +" memory[18] [31:0] $end
       $var wire 32 ," memory[19] [31:0] $end
       $var wire 32 -" memory[20] [31:0] $end
       $var wire 32 ." memory[21] [31:0] $end
       $var wire 32 /" memory[22] [31:0] $end
       $var wire 32 0" memory[23] [31:0] $end
       $var wire 32 1" memory[24] [31:0] $end
       $var wire 32 2" memory[25] [31:0] $end
       $var wire 32 3" memory[26] [31:0] $end
       $var wire 32 4" memory[27] [31:0] $end
       $var wire 32 5" memory[28] [31:0] $end
       $var wire 32 6" memory[29] [31:0] $end
       $var wire 32 7" memory[30] [31:0] $end
       $var wire 32 8" memory[31] [31:0] $end
       $var wire 32 9" rs1_buffer [31:0] $end
       $var wire 32 :" rs2_buffer [31:0] $end
       $var wire 32 ;" write_buffer [31:0] $end
       $var wire 5 <" write_address_buffer [4:0] $end
       $var wire 1 =" written_flag $end
       $var wire 5 >" rs1_address_buffer [4:0] $end
       $var wire 5 ?" rs2_address_buffer [4:0] $end
       $var wire 1 @" level0_rs1_forward $end
       $var wire 1 A" level0_rs2_forward $end
       $var wire 32 B" l0_forward_rs1_data [31:0] $end
       $var wire 32 C" l0_forward_rs2_data [31:0] $end
       $var wire 1 D" level1_rs1_forward $end
       $var wire 1 E" level1_rs2_forward $end
       $var wire 32 F" l1_forward_rs1_data [31:0] $end
       $var wire 32 G" l1_forward_rs2_data [31:0] $end
      $upscope $end
     $upscope $end
     $scope module execute_stage $end
      $var wire 1 q" clk $end
      $var wire 1 u" clk_en $end
      $var wire 1 ' sync_rst $end
      $var wire 32 Z! inst_in [31:0] $end
      $var wire 13 [! ctr_word_in [12:0] $end
      $var wire 32 \! regfile_rs1 [31:0] $end
      $var wire 32 ]! regfile_rs2 [31:0] $end
      $var wire 30 ^! pc_in [29:0] $end
      $var wire 30 _! pc_target_address [29:0] $end
      $var wire 1 `! pc_jmp $end
      $var wire 5 b! ctr_out [4:0] $end
      $var wire 32 a! inst_out [31:0] $end
      $var wire 32 c! alu_out [31:0] $end
      $var wire 30 d! inc_pc_out [29:0] $end
      $var wire 32 e! regfile_rs2_out [31:0] $end
      $var wire 5 f! exe_rs1_address [4:0] $end
      $var wire 5 g! exe_rs2_address [4:0] $end
      $var wire 1 h! exe_uses_rs1 $end
      $var wire 1 i! exe_uses_rs2 $end
      $var wire 1 H" ctr_alu_asel $end
      $var wire 1 I" ctr_alu_bsel $end
      $var wire 1 J" ctr_alu_modsel $end
      $var wire 3 K" ctr_imm_sel [2:0] $end
      $var wire 1 L" ctr_jump $end
      $var wire 1 M" ctr_branch $end
      $var wire 7 N" inst_fn7 [6:0] $end
      $var wire 3 O" inst_fn3 [2:0] $end
      $var wire 32 P" inst_i_imm [31:0] $end
      $var wire 32 Q" inst_s_imm [31:0] $end
      $var wire 32 R" inst_b_imm [31:0] $end
      $var wire 32 S" inst_u_imm [31:0] $end
      $var wire 32 T" inst_j_imm [31:0] $end
      $var wire 5 b! ctr_buffer [4:0] $end
      $var wire 32 a! inst_buffer [31:0] $end
      $var wire 32 c! alu_buffer [31:0] $end
      $var wire 30 d! inc_pc_buffer [29:0] $end
      $var wire 32 e! regfile_rs2_buffer [31:0] $end
      $var wire 32 U" alu_imm [31:0] $end
      $var wire 32 V" alu_a [31:0] $end
      $var wire 32 W" alu_b [31:0] $end
      $var wire 3 X" alu_mod [2:0] $end
      $var wire 32 Y" alu_result [31:0] $end
      $var wire 1 Z" alu_fn7_bit5 $end
      $var wire 1 [" int_branch_result $end
      $var wire 1 \" branch_result $end
      $scope module alu $end
       $var wire 32 V" a [31:0] $end
       $var wire 32 W" b [31:0] $end
       $var wire 3 X" fn3 [2:0] $end
       $var wire 1 Z" fn7_bit5 $end
       $var wire 32 Y" result [31:0] $end
       $var wire 1 ]" force_sub $end
       $var wire 1 ^" sub_mode $end
       $var wire 33 _" int_add_sub [32:0] $end
       $var wire 1 a" overflow $end
       $var wire 32 b" reversed_a [31:0] $end
       $var wire 32 c" left_shift [31:0] $end
       $var wire 32 d" barrel_shifter_a [31:0] $end
       $var wire 64 e" barrel_shifter_result [63:0] $end
      $upscope $end
     $upscope $end
     $scope module fetch_stage $end
      $var wire 1 q" clk $end
      $var wire 1 u" clk_en $end
      $var wire 1 ' sync_rst $end
      $var wire 1 `! jmp $end
      $var wire 30 _! data_in [29:0] $end
      $var wire 30 X! to_pipe [29:0] $end
      $var wire 30 V! to_address [29:0] $end
      $var wire 30 X! pc [29:0] $end
      $var wire 30 V! next_pc [29:0] $end
     $upscope $end
     $scope module memory_stage $end
      $var wire 1 q" clk $end
      $var wire 1 r" clk_en $end
      $var wire 1 ' sync_rst $end
      $var wire 32 a! inst_in [31:0] $end
      $var wire 5 b! ctr_word_in [4:0] $end
      $var wire 32 c! alu_in [31:0] $end
      $var wire 30 d! inc_pc_in [29:0] $end
      $var wire 32 e! regfile_rs2 [31:0] $end
      $var wire 5 f! exe_regfile_rs1_address [4:0] $end
      $var wire 5 g! exe_regfile_rs2_address [4:0] $end
      $var wire 1 h! exe_uses_rs1 $end
      $var wire 1 i! exe_uses_rs2 $end
      $var wire 1 j! stall $end
      $var wire 32 ) data_out [31:0] $end
      $var wire 30 ( address_out [29:0] $end
      $var wire 4 * mask [3:0] $end
      $var wire 1 + bus_lock $end
      $var wire 1 , memory_mode $end
      $var wire 20 k! inst_u_imm_out [19:0] $end
      $var wire 3 l! inst_fn3_out [2:0] $end
      $var wire 5 m! rd_addr_out [4:0] $end
      $var wire 3 n! ctr_out [2:0] $end
      $var wire 32 o! alu_out [31:0] $end
      $var wire 30 p! inc_pc_out [29:0] $end
      $var wire 5 g" inst_rd_addr [4:0] $end
      $var wire 20 k! inst_u_imm_buffer [19:0] $end
      $var wire 3 l! inst_fn3_buffer [2:0] $end
      $var wire 5 m! rd_addr_buffer [4:0] $end
      $var wire 3 n! ctr_buffer [2:0] $end
      $var wire 32 o! alu_buffer [31:0] $end
      $var wire 30 p! inc_pc_buffer [29:0] $end
      $var wire 1 h" rs1_hazard $end
      $var wire 1 i" rs2_hazard $end
      $scope module output_adj $end
       $var wire 32 e! data_in [31:0] $end
       $var wire 3 j" fn3 [2:0] $end
       $var wire 2 k" addr_low [1:0] $end
       $var wire 32 ) data_out [31:0] $end
       $var wire 4 * mask [3:0] $end
      $upscope $end
     $upscope $end
     $scope module writeback_stage $end
      $var wire 3 n! ctr_word_in [2:0] $end
      $var wire 3 l! fn3_in [2:0] $end
      $var wire 5 m! rd_addr_in [4:0] $end
      $var wire 32 - memory_data_in [31:0] $end
      $var wire 32 o! alu_in [31:0] $end
      $var wire 30 p! inc_pc_in [29:0] $end
      $var wire 20 k! u_type_imm_in [19:0] $end
      $var wire 1 r! regfile_we $end
      $var wire 32 q! data_out [31:0] $end
      $var wire 5 m! write_address [4:0] $end
      $var wire 32 l" adjusted_memory_data [31:0] $end
      $scope module input_adj $end
       $var wire 32 - data_in [31:0] $end
       $var wire 3 l! fn3 [2:0] $end
       $var wire 2 m" addr_low [1:0] $end
       $var wire 32 l" data_out [31:0] $end
       $var wire 8 n" adj_byte [7:0] $end
       $var wire 16 o" adj_word [15:0] $end
       $var wire 2 p" size [1:0] $end
      $upscope $end
     $upscope $end
    $upscope $end
   $upscope $end
  $upscope $end
 $upscope $end
$enddefinitions $end


#0
b000000000000000000 #
0$
0%
0&
1'
b000000000000000000000000000000 (
b00000000000000000000000000000000 )
b1000 *
0+
0,
b00000000000000000000000000000000 -
b00000000 .
b00000000 /
b00000000 0
b00000000 1
b00000000 2
b00000000 3
b00000000 4
b00000000 5
b00000000 6
b00000000 7
b00000000 8
b00000000 9
b00000000 :
b00000000 ;
b00000000 <
b00000000 =
b00000000 >
b00000000 ?
b00000000 @
b00000000 A
b00000000 B
b00000000 C
b00000000 D
b00000000 E
b00000000 F
b00000000 G
b00000000 H
b00000000 I
b00000000 J
b00000000 K
b00000000 L
b00000000 M
b00000000 N
b00000000 O
b00000000 P
b00000000 Q
b00000000 R
b00000000 S
b00000000 T
b00000000 U
b00000000 V
b00000000 W
b00000000 X
b00000000 Y
b00000000 Z
b00000000 [
b00000000 \
b00000000 ]
b00000000 ^
b00000000 _
b00000000 `
b00000000 a
b00000000 b
b00000000 c
b00000000 d
b00000000 e
b00000000 f
b00000000 g
b00000000 h
b00000000 i
b00000000 j
b00000000 k
b00000000 l
b00000000 m
b00000000 n
b00000000 o
b00000000 p
b00000000 q
b00000000 r
b00000000 s
b00000000 t
b00000000 u
b00000000 v
b00000000 w
b00000000 x
b00000000 y
b00000000 z
b00000000 {
b00000000 |
b00000000 }
b00000000 ~
b00000000 !!
b00000000 "!
b00000000 #!
b00000000 $!
b00000000 %!
b00000000 &!
b00000000 '!
b00000000 (!
b00000000 )!
b00000000 *!
b00000000 +!
b00000000 ,!
b00000000 -!
b00000000 .!
b00000000 /!
b00000000 0!
b00000000 1!
b00000000 2!
b00000000 3!
b00000000 4!
b00000000 5!
b00000000 6!
b00000000 7!
b00000000 8!
b00000000 9!
b00000000 :!
b00000000 ;!
b00000000 <!
b00000000 =!
b00000000 >!
b00000000 ?!
b00000000 @!
b00000000 A!
b00000000 B!
b00000000 C!
b00000000 D!
b00000000 E!
b00000000 F!
b00000000 G!
b00000000 H!
b00000000 I!
b00000000 J!
b00000000 K!
b00000000 L!
b00000000 M!
b00000000 N!
b00000000 O!
b00000000 P!
b00000000 Q!
b00000000 R!
b00000000 S!
b00000000000000000000000000000000 T!
b00000000000000000000000000000000 U!
b000000000000000000000000000001 V!
b00000000000000000000000000000000 W!
b000000000000000000000000000000 X!
b00000000000000000000000000000000 Y!
b00000000000000000000000000000000 Z!
b0000000000000 [!
b00000000000000000000000000000000 \!
b00000000000000000000000000000000 ]!
b000000000000000000000000000000 ^!
b000000000000000000000000000000 _!
0`!
b00000000000000000000000000000000 a!
b00000 b!
b00000000000000000000000000000000 c!
b000000000000000000000000000000 d!
b00000000000000000000000000000000 e!
b00000 f!
b00000 g!
1h!
1i!
0j!
b00000000000000000000 k!
b000 l!
b00000 m!
b000 n!
b00000000000000000000000000000000 o!
b000000000000000000000000000000 p!
b00000000000000000000000000000000 q!
0r!
b0000000000000 s!
b0000000 t!
b00000 u!
b00000 v!
b00000000000000000000000000000000 w!
b00000000000000000000000000000000 x!
b00000000000000000000000000000000 y!
b00000000000000000000000000000000 z!
b00000000000000000000000000000000 {!
b00000000000000000000000000000000 |!
b00000000000000000000000000000000 }!
b00000000000000000000000000000000 ~!
b00000000000000000000000000000000 !"
b00000000000000000000000000000000 ""
b00000000000000000000000000000000 #"
b00000000000000000000000000000000 $"
b00000000000000000000000000000000 %"
b00000000000000000000000000000000 &"
b00000000000000000000000000000000 '"
b00000000000000000000000000000000 ("
b00000000000000000000000000000000 )"
b00000000000000000000000000000000 *"
b00000000000000000000000000000000 +"
b00000000000000000000000000000000 ,"
b00000000000000000000000000000000 -"
b00000000000000000000000000000000 ."
b00000000000000000000000000000000 /"
b00000000000000000000000000000000 0"
b00000000000000000000000000000000 1"
b00000000000000000000000000000000 2"
b00000000000000000000000000000000 3"
b00000000000000000000000000000000 4"
b00000000000000000000000000000000 5"
b00000000000000000000000000000000 6"
b00000000000000000000000000000000 7"
b00000000000000000000000000000000 8"
b00000000000000000000000000000000 9"
b00000000000000000000000000000000 :"
b00000000000000000000000000000000 ;"
b00000 <"
0="
b00000 >"
b00000 ?"
0@"
0A"
b00000000000000000000000000000000 B"
b00000000000000000000000000000000 C"
0D"
0E"
b00000000000000000000000000000000 F"
b00000000000000000000000000000000 G"
0H"
0I"
0J"
b000 K"
0L"
0M"
b0000000 N"
b000 O"
b00000000000000000000000000000000 P"
b00000000000000000000000000000000 Q"
b00000000000000000000000000000000 R"
b00000000000000000000000000000000 S"
b00000000000000000000000000000000 T"
b00000000000000000000000000000000 U"
b00000000000000000000000000000000 V"
b00000000000000000000000000000000 W"
b000 X"
b00000000000000000000000000000000 Y"
0Z"
1["
1\"
0]"
0^"
b000000000000000000000000000000000 _"
0a"
b00000000000000000000000000000000 b"
b00000000000000000000000000000000 c"
b00000000000000000000000000000000 d"
b0000000000000000000000000000000000000000000000000000000000000000 e"
b00000 g"
1h"
1i"
b000 j"
b00 k"
b00000000000000000000000000000000 l"
b00 m"
b00000000 n"
b0000000000000000 o"
b00 p"
0q"
0r"
0s"
b0000000000 t"
0u"
b0000 v"
#1
1$
1&
0'
b000000000000000000000000000000 V!
b111111111111111111111111111111 X!
1q"
1s"
#2
0q"
#3
0$
1q"
0s"
#4
0q"
#5
1q"
#6
0q"
#7
b000000000000000000000000000001 V!
b10010011000000000000000000000000 W!
b000000000000000000000000000000 X!
b00000000000000000000000010010011 Y!
b111111111111111111111111111111 ^!
b000000000000000000000000000001 d!
b0010000000010 s!
b0010011 t!
1q"
1r"
b1000000000 t"
1u"
#8
0q"
#9
b000000000000000000000000000010 V!
b00110111010000010000000000000000 W!
b000000000000000000000000000001 X!
b00000000000000000100000100110111 Y!
b00000000000000000000000010010011 Z!
b0010000000010 [!
b000000000000000000000000000000 ^!
b000000000000000000000000000000 d!
0i!
b000000000000000000000000000001 p!
b1110000000000 s!
b0110111 t!
1I"
b00000000000000000000000000000001 Q"
b00000000000000000000100000000000 R"
0i"
1q"
#10
0q"
#11
b000000000000000000000000000011 V!
b10010011100000000001000000000000 W!
b000000000000000000000000000010 X!
b00000000000100001000000010010011 Y!
b00000000000000000100000100110111 Z!
b1110000000000 [!
b000000000000000000000000000001 ^!
b00000000000000000000000010010011 a!
b00100 b!
b000000000000000000000000000001 d!
1i!
b000000000000000000000000000000 p!
b0010000000010 s!
b0010011 t!
b00001 u!
b00001 v!
0I"
b100 O"
b00000000000000000000000000000010 Q"
b00000000000000000000000000000010 R"
b00000000000000000100000000000000 S"
b00000000000000000010000000000000 T"
b100 X"
0["
0\"
b00001 g"
0h"
1q"
#12
0q"
#13
b0000 *
b000000000000000000000000000100 V!
b00100011001000000001000100000000 W!
b000000000000000000000000000011 X!
b00000000000100010010000000100011 Y!
b00000000000100001000000010010011 Z!
b0010000000010 [!
b000000000000000000000000000010 ^!
b00000000000000000100000100110111 a!
b11100 b!
b000000000000000000000000000010 d!
b00001 f!
b00001 g!
0i!
b00001 m!
b001 n!
b000000000000000000000000000001 p!
1r!
b0001100001110 s!
b0100011 t!
b00010 u!
b00001 >"
b00001 ?"
1D"
1E"
1I"
b000 O"
b00000000000000000000000000000001 P"
b00000000000000000000000000000001 Q"
b00000000000000000000100000000000 R"
b00000000000100001000000000000000 S"
b00000000000010000100000000000000 T"
b00000000000000000000000000000001 U"
b00000000000000000000000000000001 W"
b000 X"
b00000000000000000000000000000001 Y"
1["
1\"
b000000000000000000000000000000001 _"
b00010 g"
b100 j"
1q"
#14
0q"
#15
b0100 *
b000000000000000000000000000101 V!
b01101111111100001001111111111111 W!
b000000000000000000000000000100 X!
b11111111100111111111000001101111 Y!
b00000000000100010010000000100011 Z!
b0001100001110 [!
b00000000000000000100000000000000 \!
b000000000000000000000000000011 ^!
b000000000000000001000000000000 _!
b00000000000100001000000010010011 a!
b00100 b!
b00000000000000000000000000000001 c!
b000000000000000000000000000011 d!
b00010 f!
b00000000000000000100 k!
b100 l!
b00010 m!
b111 n!
b000000000000000000000000000010 p!
b00000000000000000100000000000000 q!
b1010001011111 s!
b1101111 t!
b11111 u!
b11001 v!
b00001 <"
1="
b00010 >"
1A"
0E"
b00000000000000000100000000000000 F"
1J"
b001 K"
b010 O"
b00000000000000000000000000000000 Q"
b00000000000000000000000000000000 R"
b00000000000100010010000000000000 S"
b00000000000010001001000000000000 T"
b00000000000000000000000000000000 U"
b00000000000000000100000000000000 V"
b00000000000000000000000000000000 W"
b00000000000000000100000000000000 Y"
0["
0\"
b000000000000000000100000000000000 _"
b00000000000000100000000000000000 b"
b00000000000000000100000000000000 c"
b00000000000000100000000000000000 d"
b0000000000000000000000000000000000000000000000100000000000000000 e"
b00001 g"
b000 j"
b01 k"
1q"
#16
0q"
#17
b000000000000000001000000000000 (
b1111 *
1+
1,
b000000000000000000000000000010 V!
b00000000000000000000000000000000 W!
b000000000000000000000000000101 X!
b00000000000000000000000000000000 Y!
b11111111100111111111000001101111 Z!
b1010001011111 [!
b00000000000000000000000000000000 \!
b000000000000000000000000000100 ^!
b000000000000000000000000000010 _!
1`!
b00000000000100010010000000100011 a!
b00011 b!
b00000000000000000100000000000000 c!
b000000000000000000000000000100 d!
b11111 f!
b11001 g!
0h!
b00000000000100001000 k!
b000 l!
b00001 m!
b001 n!
b00000000000000000000000000000001 o!
b000000000000000000000000000011 p!
b00000000000000000000000000000001 q!
b0000000000000 s!
b0000000 t!
b00000 u!
b00000 v!
b00000000000000000100000000000000 y!
b00000000000000000100000000000000 ;"
b00010 <"
b11111 >"
b11001 ?"
0A"
0D"
b00000000000000000000000000000000 F"
1H"
b011 K"
1L"
b1111111 N"
b111 O"
b11111111111111111111111111111001 P"
b11111111111111111111111111100000 Q"
b11111111111111111111011111100000 R"
b11111111100111111111000000000000 S"
b11111111111111111111111111111000 T"
b11111111111111111111111111111000 U"
b00000000000000000000000000010000 V"
b11111111111111111111111111111000 W"
b00000000000000000000000000001000 Y"
1\"
b100000000000000000000000000001000 _"
b00001000000000000000000000000000 b"
b00000000000000000000000000000000 c"
b00001000000000000000000000000000 d"
b0000000000000000000000000000000000000000000000000000000000000000 e"
b00000 g"
b010 j"
b00 k"
b01 m"
1q"
#18
0q"
